<?xml version="1.0" standalone="no"?>
<!DOCTYPE svg PUBLIC "-//W3C//DTD SVG 1.1//EN" "http://www.w3.org/Graphics/SVG/1.1/DTD/svg11.dtd" >
<svg xmlns="http://www.w3.org/2000/svg">
<metadata>Generated by IcoMoon</metadata>
<defs>
<font id="icomoon" horiz-adv-x="1024">
<font-face units-per-em="1024" ascent="960" descent="-64" />
<missing-glyph horiz-adv-x="1024" />
<glyph unicode="&#x20;" horiz-adv-x="512" d="" />
<glyph unicode="&#xe900;" glyph-name="customize" d="M390.707-48.742c-2.099 0-4.25 0.256-6.4 0.819-45.978 11.827-90.163 30.054-131.277 54.221-11.93 7.014-16.128 22.221-9.523 34.355 8.141 14.95 12.442 31.846 12.442 48.998 0 56.474-45.926 102.4-102.4 102.4-17.101 0-34.048-4.301-48.998-12.442-12.134-6.605-27.341-2.406-34.355 9.523-24.166 41.165-42.394 85.299-54.221 131.277-3.328 13.005 3.942 26.368 16.64 30.618 41.677 14.029 69.734 53.043 69.734 97.024s-28.006 82.995-69.734 97.024c-12.698 4.301-19.968 17.613-16.64 30.618 11.827 45.978 30.054 90.163 54.221 131.277 7.014 11.93 22.221 16.128 34.355 9.523 14.899-8.141 31.846-12.442 48.998-12.442 56.474 0 102.4 45.926 102.4 102.4 0 17.101-4.301 34.048-12.442 48.998-6.605 12.134-2.406 27.341 9.523 34.355 41.165 24.166 85.299 42.394 131.277 54.221 13.005 3.328 26.368-3.942 30.618-16.64 14.029-41.677 53.043-69.734 97.024-69.734s82.995 28.006 97.024 69.734c4.301 12.698 17.664 19.968 30.618 16.64 45.978-11.827 90.163-30.054 131.277-54.221 11.93-7.014 16.128-22.221 9.523-34.355-8.141-14.95-12.442-31.846-12.442-48.998 0-56.474 45.926-102.4 102.4-102.4 17.101 0 34.048 4.301 48.998 12.442 12.134 6.605 27.341 2.406 34.355-9.523 24.166-41.165 42.394-85.299 54.221-131.277 3.328-13.005-3.942-26.368-16.64-30.618-41.677-14.029-69.734-53.043-69.734-97.024s28.006-82.995 69.734-97.024c12.698-4.301 19.968-17.613 16.64-30.618-11.827-45.978-30.054-90.163-54.221-131.277-7.014-11.93-22.221-16.128-34.355-9.523-14.95 8.141-31.846 12.442-48.998 12.442-56.474 0-102.4-45.926-102.4-102.4 0-17.101 4.301-34.048 12.442-48.998 6.605-12.134 2.406-27.341-9.523-34.355-41.165-24.166-85.299-42.394-131.277-54.221-13.005-3.328-26.368 3.942-30.618 16.64-14.029 41.677-53.043 69.734-97.024 69.734s-82.995-28.006-97.024-69.734c-3.584-10.598-13.517-17.459-24.269-17.459zM512 89.6c57.702 0 109.67-32.154 135.936-82.022 26.624 8.243 52.531 18.893 77.312 31.846-5.53 16.077-8.397 33.075-8.397 50.176 0 84.685 68.915 153.6 153.6 153.6 17.101 0 34.099-2.867 50.176-8.397 12.954 24.781 23.654 50.637 31.846 77.312-49.869 26.214-82.022 78.182-82.022 135.936s32.154 109.67 82.022 135.936c-8.243 26.624-18.893 52.531-31.846 77.312-16.077-5.53-33.075-8.397-50.176-8.397-84.685 0-153.6 68.915-153.6 153.6 0 17.101 2.867 34.099 8.397 50.176-24.781 12.954-50.637 23.654-77.312 31.846-26.214-49.869-78.182-82.022-135.936-82.022s-109.67 32.154-135.936 82.022c-26.624-8.192-52.531-18.893-77.312-31.846 5.53-16.077 8.397-33.075 8.397-50.176 0-84.685-68.915-153.6-153.6-153.6-17.101 0-34.099 2.867-50.176 8.397-12.954-24.781-23.654-50.637-31.846-77.312 49.869-26.214 82.022-78.182 82.022-135.936s-32.154-109.67-82.022-135.936c8.192-26.624 18.893-52.531 31.846-77.312 16.077 5.53 33.075 8.397 50.176 8.397 84.685 0 153.6-68.915 153.6-153.6 0-17.101-2.867-34.099-8.397-50.176 24.781-12.954 50.637-23.654 77.312-31.846 26.214 49.869 78.182 82.022 135.936 82.022zM512 294.4c-84.685 0-153.6 68.915-153.6 153.6s68.915 153.6 153.6 153.6 153.6-68.915 153.6-153.6-68.915-153.6-153.6-153.6zM512 550.4c-56.474 0-102.4-45.926-102.4-102.4s45.926-102.4 102.4-102.4c56.474 0 102.4 45.926 102.4 102.4s-45.926 102.4-102.4 102.4z" />
<glyph unicode="&#xe901;" glyph-name="smart" d="M640 601.6c-14.131 0-25.6 11.469-25.6 25.6s11.469 25.6 25.6 25.6c14.131 0 25.6 11.469 25.6 25.6s11.469 25.6 25.6 25.6 25.6-11.469 25.6-25.6c0-42.342-34.458-76.8-76.8-76.8zM644.352 192c-10.547 0-20.429 6.554-24.115 17.050-3.891 10.957-5.837 22.426-5.837 34.15 0 56.474 45.926 102.4 102.4 102.4 11.674 0 23.194-1.946 34.15-5.837 13.312-4.71 20.326-19.354 15.616-32.666s-19.354-20.326-32.666-15.616c-5.478 1.946-11.213 2.918-17.050 2.918-28.211 0-51.2-22.989-51.2-51.2 0-5.888 0.973-11.622 2.918-17.050 4.71-13.312-2.253-27.955-15.616-32.666-2.816-0.973-5.683-1.485-8.55-1.485zM972.8 422.4c0 125.901-39.117 245.811-113.152 347.085-19.098 56.627-62.362 103.117-119.757 125.44-27.853 39.373-73.728 65.126-125.491 65.126-53.35 0-100.454-27.341-128-68.813-27.546 41.421-74.65 68.813-128 68.813-51.763 0-97.638-25.754-125.491-65.126-57.446-22.323-100.71-68.813-119.757-125.44-74.035-101.274-113.152-221.184-113.152-347.085 0-33.536 2.867-67.174 8.499-99.994-5.632-25.498-8.499-52.070-8.499-79.206 0-81.101 26.010-157.594 73.267-215.347 48.486-59.238 113.357-91.853 182.733-91.853 13.466 0 26.982 1.28 40.192 3.738 11.827-2.458 24.064-3.738 36.608-3.738 65.126 0 122.214 34.918 153.6 86.989 31.386-52.070 88.474-86.989 153.6-86.989 12.544 0 24.781 1.28 36.608 3.738 13.261-2.509 26.726-3.738 40.192-3.738 69.376 0 134.246 32.614 182.733 91.853 47.258 57.754 73.267 134.246 73.267 215.347 0 27.187-2.867 53.709-8.499 79.206 5.632 32.819 8.499 66.406 8.499 99.994zM332.8-12.8c-70.554 0-128 57.446-128 128 0 14.131-11.469 25.6-25.6 25.6s-25.6-11.469-25.6-25.6c0-44.851 16.538-85.862 43.878-117.35-84.48 31.539-146.278 129.587-146.278 245.35 0 59.29 16.691 117.146 46.95 162.867 7.782 11.776 4.557 27.699-7.219 35.482s-27.648 4.557-35.482-7.219c-1.434-2.15-2.816-4.352-4.198-6.502 0.819 82.074 19.814 161.229 55.654 233.318 7.987-37.632 26.47-72.346 54.016-100.454 5.018-5.12 11.674-7.68 18.278-7.68 6.451 0 12.954 2.458 17.92 7.322 10.086 9.882 10.291 26.112 0.358 36.198-28.314 28.877-43.878 67.072-43.878 107.469 0 44.954 19.507 86.477 51.712 114.995-0.358-4.147-0.512-8.346-0.512-12.595 0-10.342 1.024-20.634 3.072-30.72 2.458-12.134 13.158-20.531 25.037-20.531 1.69 0 3.379 0.154 5.12 0.512 13.875 2.816 22.784 16.333 20.019 30.157-1.382 6.707-2.048 13.619-2.048 20.531 0 56.474 45.926 102.4 102.4 102.4s102.4-45.926 102.4-102.4v-346.419c-27.187 24.371-63.078 39.219-102.4 39.219-10.394 0-20.787-1.075-30.925-3.123-13.875-2.816-22.784-16.384-19.968-30.208s16.333-22.784 30.208-19.968c6.758 1.382 13.722 2.099 20.685 2.099 56.474 0 102.4-45.926 102.4-102.4v-230.4c0-70.554-57.446-128-128-128zM775.322-2.099c27.29 31.437 43.878 72.499 43.878 117.299 0 14.131-11.469 25.6-25.6 25.6s-25.6-11.469-25.6-25.6c0-70.554-57.446-128-128-128s-128 57.446-128 128v230.4c0 56.474 45.926 102.4 102.4 102.4 6.963 0 13.926-0.717 20.685-2.099 13.824-2.816 27.392 6.093 30.208 19.968s-6.093 27.392-19.968 30.208c-10.138 2.048-20.531 3.123-30.925 3.123-39.322 0-75.213-14.848-102.4-39.219v346.419c0 56.474 45.926 102.4 102.4 102.4s102.4-45.926 102.4-102.4c0-6.912-0.666-13.824-2.048-20.531-2.816-13.875 6.144-27.392 20.019-30.157 1.741-0.358 3.43-0.512 5.12-0.512 11.93 0 22.579 8.397 25.037 20.531 2.048 10.035 3.072 20.378 3.072 30.669 0 4.25-0.205 8.448-0.512 12.595 32.205-28.57 51.712-70.042 51.712-114.995 0-40.448-15.565-78.592-43.878-107.469-9.882-10.086-9.728-26.317 0.358-36.198 4.966-4.864 11.469-7.322 17.92-7.322 6.656 0 13.261 2.56 18.278 7.68 27.546 28.109 46.029 62.771 54.016 100.454 35.84-72.038 54.835-151.245 55.654-233.318-1.382 2.202-2.765 4.352-4.198 6.502-7.782 11.776-23.706 15.002-35.482 7.219s-15.002-23.706-7.219-35.482c30.259-45.722 46.95-103.578 46.95-162.867 0-115.712-61.747-213.76-146.278-245.299zM332.8 601.6c-42.342 0-76.8 34.458-76.8 76.8 0 14.131 11.469 25.6 25.6 25.6s25.6-11.469 25.6-25.6c0-14.131 11.469-25.6 25.6-25.6s25.6-11.469 25.6-25.6-11.469-25.6-25.6-25.6zM328.448 192c-2.816 0-5.734 0.461-8.55 1.485-13.312 4.71-20.326 19.354-15.616 32.666 1.946 5.478 2.918 11.213 2.918 17.050 0 28.211-22.989 51.2-51.2 51.2-5.888 0-11.622-0.973-17.050-2.918-13.312-4.71-27.955 2.253-32.666 15.616s2.253 27.955 15.616 32.666c10.957 3.891 22.426 5.837 34.15 5.837 56.474 0 102.4-45.926 102.4-102.4 0-11.674-1.946-23.194-5.837-34.15-3.738-10.496-13.619-17.050-24.115-17.050z" />
<glyph unicode="&#xe902;" glyph-name="fast" d="M691.2 499.2c-70.554 0-128 57.446-128 128s57.446 128 128 128 128-57.446 128-128-57.446-128-128-128zM691.2 704c-42.342 0-76.8-34.458-76.8-76.8s34.458-76.8 76.8-76.8 76.8 34.458 76.8 76.8-34.458 76.8-76.8 76.8zM25.6-64c-6.656 0-13.21 2.611-18.125 7.475-7.014 7.014-9.37 17.51-5.939 26.829 78.797 216.627 161.638 326.502 246.17 326.502 27.904 0 53.965-11.981 77.568-35.533 37.274-37.274 38.605-74.394 33.178-98.97-17.101-77.21-126.157-152.832-324.096-224.819-2.867-1.024-5.837-1.536-8.755-1.536zM247.757 245.658c-25.344 0-55.194-22.221-86.272-64.256-30.566-41.318-61.286-100.198-91.546-175.462 68.352 27.494 123.29 55.398 163.789 83.2 54.63 37.53 70.81 66.56 74.752 84.275s-2.406 34.662-19.405 51.661c-13.824 13.824-27.341 20.531-41.37 20.531zM998.4 960c-132.864 0-251.238-22.528-351.949-66.97-82.995-36.659-154.061-88.064-211.251-152.883-10.65-12.083-20.531-24.32-29.696-36.608-44.134-2.918-89.293-20.48-134.349-52.224-38.144-26.829-76.442-64-113.92-110.438-62.976-78.029-101.683-154.982-103.322-158.208-5.581-11.213-2.253-24.832 7.885-32.154 4.506-3.277 9.779-4.864 15.002-4.864 6.554 0 13.107 2.509 18.074 7.424 0.256 0.256 24.73 24.32 66.458 47.923 34.406 19.456 87.45 42.342 151.603 46.387 16.23-41.523 62.669-91.187 84.941-113.459s71.936-68.71 113.459-84.941c-4.045-64.154-26.931-117.197-46.387-151.603-23.654-41.779-47.667-66.202-47.872-66.406-8.858-8.858-9.984-22.886-2.662-33.075 4.966-6.861 12.749-10.65 20.787-10.65 3.891 0 7.782 0.87 11.418 2.714 3.226 1.638 80.179 40.346 158.208 103.322 46.438 37.478 83.61 75.776 110.438 113.92 31.744 45.107 49.254 90.214 52.224 134.349 12.237 9.114 24.474 18.995 36.608 29.696 64.819 57.19 116.224 128.256 152.883 211.251 44.442 100.659 66.97 219.085 66.97 351.949v25.6h-25.6zM159.078 457.83c48.794 70.81 123.392 158.618 207.462 186.214-33.229-58.214-50.432-111.667-56.627-145.562-59.341-3.635-110.49-20.89-150.835-40.653zM521.882 95.232c19.763 40.346 37.018 91.443 40.602 150.733 33.843 6.195 87.347 23.398 145.51 56.576-27.648-83.917-115.405-158.515-186.163-207.309zM770.253 409.6c-106.496-93.952-216.781-115.2-232.653-115.2-0.102 0-10.598 0.205-38.861 20.122-19.712 13.875-42.701 33.638-64.614 55.552s-41.677 44.902-55.552 64.614c-19.917 28.262-20.122 38.758-20.122 38.861 0 15.872 21.248 126.157 115.2 232.653 112.435 127.386 284.518 197.069 498.893 202.24-5.171-214.374-74.803-386.458-202.24-498.893z" />
<glyph unicode="&#xe903;" glyph-name="users" d="M969.062 132.71c-18.278 19.507-40.499 36.506-66.355 51.046-15.514 30.925-45.978 71.629-105.37 104.090-24.32 13.312-51.814 24.32-82.278 33.075 62.106 35.226 104.141 101.939 104.141 178.278 0 82.893-49.51 154.47-120.525 186.624-15.206 33.69-39.066 62.515-69.632 83.814-10.394 7.27-21.402 13.466-32.768 18.637-15.206 33.638-39.066 62.464-69.632 83.763-34.458 24.013-74.906 36.71-117.043 36.71-112.947 0-204.8-91.853-204.8-204.8 0-42.138 12.698-82.586 36.71-117.043 21.299-30.566 50.125-54.426 83.763-69.632 5.171-11.418 11.366-22.374 18.637-32.768 9.626-13.773 20.787-26.163 33.178-37.069-76.698-2.406-143.206-13.466-198.093-32.973-51.661-18.381-93.389-44.288-124.109-77.005-54.323-57.907-54.938-117.402-54.938-119.91 0-42.342 34.458-76.8 76.8-76.8h29.082c-3.379-14.899-3.482-24.627-3.482-25.6 0-42.342 34.458-76.8 76.8-76.8h29.082c-3.379-14.899-3.482-24.627-3.482-25.6 0-42.342 34.458-76.8 76.8-76.8h665.6c42.342 0 76.8 34.458 76.8 76.8 0 2.509-0.614 62.003-54.938 119.91zM768 499.2c0-84.685-68.915-153.6-153.6-153.6s-153.6 68.915-153.6 153.6 68.915 153.6 153.6 153.6 153.6-68.915 153.6-153.6zM256 704c0 84.685 68.915 153.6 153.6 153.6 44.339 0 85.965-19.558 114.688-51.61-4.096 0.256-8.141 0.41-12.288 0.41-112.947 0-204.8-91.853-204.8-204.8 0-4.096 0.154-8.192 0.41-12.288-32.051 28.723-51.61 70.349-51.61 114.688zM358.4 601.6c0 84.685 68.915 153.6 153.6 153.6 44.288 0 85.914-19.558 114.637-51.558-4.045 0.256-8.141 0.358-12.237 0.358-112.947 0-204.8-91.853-204.8-204.8 0-4.096 0.154-8.192 0.358-12.237-32.051 28.723-51.558 70.349-51.558 114.637zM76.8 192c-14.080 0-25.498 11.418-25.6 25.446 0.051 2.816 1.894 45.005 43.776 87.859 40.806 41.728 128.512 91.494 314.624 91.494 9.37 0 18.637-0.154 27.75-0.41 11.264-19.354 25.6-36.659 42.342-51.302-76.749-2.406-143.309-13.466-198.246-32.973-51.661-18.381-93.389-44.288-124.109-77.005-13.67-14.592-23.91-29.286-31.642-43.11h-48.896zM179.2 89.6c-14.080 0-25.498 11.418-25.6 25.446 0.102 2.867 1.946 45.056 43.776 87.859 40.806 41.728 128.512 91.494 314.624 91.494 155.392 0 243.354-34.202 293.12-72.55-54.63 14.182-118.528 21.35-190.72 21.35-90.522 0-168.090-11.264-230.554-33.485-51.661-18.381-93.389-44.288-124.109-77.005-13.67-14.592-23.91-29.286-31.642-43.11h-48.896zM947.2-12.8h-665.6c-14.080 0-25.498 11.418-25.6 25.446 0.051 2.816 1.894 45.005 43.776 87.859 40.806 41.728 128.512 91.494 314.624 91.494s273.818-49.766 314.624-91.494c41.882-42.854 43.674-85.043 43.776-87.859-0.102-14.029-11.52-25.446-25.6-25.446z" />
<glyph unicode="&#xe904;" glyph-name="phone-in-out" d="M819.2-64c-90.675 0-187.136 25.702-286.72 76.39-91.802 46.746-182.477 113.664-262.246 193.536s-146.586 170.65-193.28 262.502c-50.586 99.635-76.288 196.096-76.288 286.771 0 58.778 54.784 115.558 78.285 137.216 33.843 31.181 87.091 67.584 125.798 67.584 19.251 0 41.779-12.595 71.014-39.629 21.76-20.173 46.285-47.514 70.81-79.053 14.797-19.046 88.576-116.275 88.576-162.918 0-38.246-43.264-64.87-89.037-92.979-17.715-10.854-35.994-22.118-49.203-32.717-14.131-11.315-16.64-17.306-17.050-18.637 48.589-121.139 197.12-269.67 318.208-318.208 1.075 0.358 7.066 2.714 18.586 17.050 10.598 13.21 21.862 31.539 32.717 49.203 28.16 45.773 54.733 89.037 92.979 89.037 46.643 0 143.872-73.779 162.918-88.576 31.539-24.525 58.88-49.050 79.053-70.81 27.034-29.184 39.629-51.763 39.629-71.014 0-38.707-36.403-92.109-67.533-126.106-21.709-23.654-78.49-78.694-137.267-78.694zM204.493 908.8c-13.722-0.256-50.637-17.050-90.778-54.016-38.093-35.123-61.798-73.267-61.798-99.584 0-344.525 423.117-768 767.283-768 26.266 0 64.41 23.808 99.533 62.106 37.018 40.346 53.811 77.414 54.067 91.187-1.638 9.728-28.57 47.565-102.246 104.294-63.334 48.742-114.688 74.906-127.898 75.213-0.922-0.256-6.656-2.458-18.278-17.203-10.086-12.851-20.89-30.413-31.386-47.411-28.672-46.643-55.757-90.726-95.13-90.726-6.349 0-12.595 1.229-18.586 3.635-134.349 53.76-293.325 212.685-347.085 347.085-6.451 16.128-7.475 41.421 24.269 70.195 16.896 15.309 40.243 29.645 62.874 43.571 16.998 10.445 34.611 21.248 47.411 31.386 14.746 11.622 16.947 17.357 17.203 18.278-0.358 13.21-26.47 64.563-75.213 127.898-56.73 73.677-94.566 100.557-104.294 102.246zM844.8 960h-153.6c-14.131 0-25.6-11.469-25.6-25.6s11.469-25.6 25.6-25.6h91.802l-212.275-212.275c-9.984-9.984-9.984-26.214 0-36.198 5.018-5.018 11.571-7.475 18.125-7.475s13.107 2.509 18.125 7.475l212.275 212.275v-91.802c0-14.131 11.469-25.6 25.6-25.6s25.6 11.469 25.6 25.6v153.6c0 14.131-11.469 25.6-25.6 25.6zM1016.525 798.925c-9.984 9.984-26.214 9.984-36.198 0l-212.275-212.275v91.802c0 14.131-11.469 25.6-25.6 25.6s-25.6-11.469-25.6-25.6v-153.6c0-14.131 11.469-25.6 25.6-25.6h153.6c14.131 0 25.6 11.469 25.6 25.6s-11.469 25.6-25.6 25.6h-91.802l212.275 212.275c9.984 9.984 9.984 26.214 0 36.198z" />
<glyph unicode="&#xe905;" glyph-name="battery-full" d="M896 550.4h-25.6v76.8c0 42.342-34.458 76.8-76.8 76.8h-716.8c-42.342 0-76.8-34.458-76.8-76.8v-409.6c0-42.342 34.458-76.8 76.8-76.8h716.8c42.342 0 76.8 34.458 76.8 76.8v76.8h25.6c42.342 0 76.8 34.458 76.8 76.8v102.4c0 42.342-34.458 76.8-76.8 76.8zM819.2 217.6c0-14.131-11.469-25.6-25.6-25.6h-716.8c-14.131 0-25.6 11.469-25.6 25.6v409.6c0 14.131 11.469 25.6 25.6 25.6h716.8c14.131 0 25.6-11.469 25.6-25.6v-409.6zM921.6 371.2c0-14.131-11.469-25.6-25.6-25.6h-25.6v153.6h25.6c14.131 0 25.6-11.469 25.6-25.6v-102.4zM128 243.2c-14.131 0-25.6 11.469-25.6 25.6v307.2c0 14.131 11.469 25.6 25.6 25.6s25.6-11.469 25.6-25.6v-307.2c0-14.131-11.469-25.6-25.6-25.6zM230.4 243.2c-14.131 0-25.6 11.469-25.6 25.6v307.2c0 14.131 11.469 25.6 25.6 25.6s25.6-11.469 25.6-25.6v-307.2c0-14.131-11.469-25.6-25.6-25.6zM332.8 243.2c-14.131 0-25.6 11.469-25.6 25.6v307.2c0 14.131 11.469 25.6 25.6 25.6s25.6-11.469 25.6-25.6v-307.2c0-14.131-11.469-25.6-25.6-25.6zM435.2 243.2c-14.131 0-25.6 11.469-25.6 25.6v307.2c0 14.131 11.469 25.6 25.6 25.6s25.6-11.469 25.6-25.6v-307.2c0-14.131-11.469-25.6-25.6-25.6zM537.6 243.2c-14.131 0-25.6 11.469-25.6 25.6v307.2c0 14.131 11.469 25.6 25.6 25.6s25.6-11.469 25.6-25.6v-307.2c0-14.131-11.469-25.6-25.6-25.6zM640 243.2c-14.131 0-25.6 11.469-25.6 25.6v307.2c0 14.131 11.469 25.6 25.6 25.6s25.6-11.469 25.6-25.6v-307.2c0-14.131-11.469-25.6-25.6-25.6zM742.4 243.2c-14.131 0-25.6 11.469-25.6 25.6v307.2c0 14.131 11.469 25.6 25.6 25.6s25.6-11.469 25.6-25.6v-307.2c0-14.131-11.469-25.6-25.6-25.6z" />
<glyph unicode="&#xe906;" glyph-name="calculator" d="M384 448h-307.2c-42.342 0-76.8 34.458-76.8 76.8v307.2c0 42.342 34.458 76.8 76.8 76.8h307.2c42.342 0 76.8-34.458 76.8-76.8v-307.2c0-42.342-34.458-76.8-76.8-76.8zM76.8 857.6c-14.131 0-25.6-11.469-25.6-25.6v-307.2c0-14.131 11.469-25.6 25.6-25.6h307.2c14.131 0 25.6 11.469 25.6 25.6v307.2c0 14.131-11.469 25.6-25.6 25.6h-307.2zM384-64h-307.2c-42.342 0-76.8 34.458-76.8 76.8v307.2c0 42.342 34.458 76.8 76.8 76.8h307.2c42.342 0 76.8-34.458 76.8-76.8v-307.2c0-42.342-34.458-76.8-76.8-76.8zM76.8 345.6c-14.131 0-25.6-11.469-25.6-25.6v-307.2c0-14.131 11.469-25.6 25.6-25.6h307.2c14.131 0 25.6 11.469 25.6 25.6v307.2c0 14.131-11.469 25.6-25.6 25.6h-307.2zM332.8 652.8h-204.8c-14.131 0-25.6 11.469-25.6 25.6s11.469 25.6 25.6 25.6h204.8c14.131 0 25.6-11.469 25.6-25.6s-11.469-25.6-25.6-25.6zM332.8 192h-76.8v76.8c0 14.131-11.469 25.6-25.6 25.6s-25.6-11.469-25.6-25.6v-76.8h-76.8c-14.131 0-25.6-11.469-25.6-25.6s11.469-25.6 25.6-25.6h76.8v-76.8c0-14.131 11.469-25.6 25.6-25.6s25.6 11.469 25.6 25.6v76.8h76.8c14.131 0 25.6 11.469 25.6 25.6s-11.469 25.6-25.6 25.6zM896-64h-307.2c-42.342 0-76.8 34.458-76.8 76.8v819.2c0 42.342 34.458 76.8 76.8 76.8h307.2c42.342 0 76.8-34.458 76.8-76.8v-819.2c0-42.342-34.458-76.8-76.8-76.8zM588.8 857.6c-14.131 0-25.6-11.469-25.6-25.6v-819.2c0-14.131 11.469-25.6 25.6-25.6h307.2c14.131 0 25.6 11.469 25.6 25.6v819.2c0 14.131-11.469 25.6-25.6 25.6h-307.2zM844.8 448h-204.8c-14.131 0-25.6 11.469-25.6 25.6s11.469 25.6 25.6 25.6h204.8c14.131 0 25.6-11.469 25.6-25.6s-11.469-25.6-25.6-25.6zM844.8 345.6h-204.8c-14.131 0-25.6 11.469-25.6 25.6s11.469 25.6 25.6 25.6h204.8c14.131 0 25.6-11.469 25.6-25.6s-11.469-25.6-25.6-25.6z" />
<glyph unicode="&#xe907;" glyph-name="magnifier" d="M966.093-21.094l-304.282 331.981c68.557 71.731 106.24 165.53 106.24 265.114 0 102.554-39.936 199.014-112.486 271.514s-168.96 112.486-271.514 112.486-199.014-39.936-271.514-112.486-112.486-168.96-112.486-271.514 39.936-199.014 112.486-271.514 168.96-112.486 271.514-112.486c88.371 0 172.134 29.645 240.026 84.224l304.282-331.93c5.069-5.53 11.93-8.294 18.893-8.294 6.195 0 12.39 2.202 17.306 6.707 10.445 9.574 11.11 25.754 1.587 36.147zM51.2 576c0 183.501 149.299 332.8 332.8 332.8s332.8-149.299 332.8-332.8-149.299-332.8-332.8-332.8-332.8 149.299-332.8 332.8z" />
<glyph unicode="&#xe908;" glyph-name="bench-press" d="M25.6 448c-14.131 0-25.6 11.469-25.6 25.6v102.4c0 14.131 11.469 25.6 25.6 25.6s25.6-11.469 25.6-25.6v-102.4c0-14.131-11.469-25.6-25.6-25.6zM998.4 448c-14.131 0-25.6 11.469-25.6 25.6v102.4c0 14.131 11.469 25.6 25.6 25.6s25.6-11.469 25.6-25.6v-102.4c0-14.131-11.469-25.6-25.6-25.6zM512 652.8c-56.474 0-102.4 45.926-102.4 102.4s45.926 102.4 102.4 102.4c56.474 0 102.4-45.926 102.4-102.4s-45.926-102.4-102.4-102.4zM512 806.4c-28.211 0-51.2-22.989-51.2-51.2s22.989-51.2 51.2-51.2c28.211 0 51.2 22.989 51.2 51.2s-22.989 51.2-51.2 51.2zM896 704c-42.342 0-76.8-34.458-76.8-76.8v-76.8h-55.603c-10.547 29.798-39.014 51.2-72.397 51.2s-61.85-21.402-72.397-51.2h-213.606c-10.547 29.798-39.014 51.2-72.397 51.2s-61.85-21.402-72.397-51.2h-55.603v76.8c0 42.342-34.458 76.8-76.8 76.8s-76.8-34.458-76.8-76.8v-204.8c0-42.342 34.458-76.8 76.8-76.8s76.8 34.458 76.8 76.8v76.8h55.603c10.547-29.798 39.014-51.2 72.397-51.2s61.85 21.402 72.397 51.2h213.606c10.547-29.798 39.014-51.2 72.397-51.2s61.85 21.402 72.397 51.2h55.603v-76.8c0-42.342 34.458-76.8 76.8-76.8s76.8 34.458 76.8 76.8v204.8c0 42.342-34.458 76.8-76.8 76.8zM153.6 422.4c0-14.131-11.469-25.6-25.6-25.6s-25.6 11.469-25.6 25.6v204.8c0 14.131 11.469 25.6 25.6 25.6s25.6-11.469 25.6-25.6v-204.8zM332.8 499.2c-14.131 0-25.6 11.469-25.6 25.6s11.469 25.6 25.6 25.6c14.131 0 25.6-11.469 25.6-25.6 0 0 0 0 0 0s0 0 0 0c0-14.131-11.469-25.6-25.6-25.6zM691.2 499.2c-14.131 0-25.6 11.469-25.6 25.6s11.469 25.6 25.6 25.6 25.6-11.469 25.6-25.6-11.469-25.6-25.6-25.6zM921.6 422.4c0-14.131-11.469-25.6-25.6-25.6s-25.6 11.469-25.6 25.6v204.8c0 14.131 11.469 25.6 25.6 25.6s25.6-11.469 25.6-25.6v-204.8zM691.2-64h-358.4c-42.342 0-76.8 34.458-76.8 76.8v358.4c0 14.131 11.469 25.6 25.6 25.6s25.6-11.469 25.6-25.6v-358.4c0-14.131 11.469-25.6 25.6-25.6h358.4c14.131 0 25.6 11.469 25.6 25.6v358.4c0 14.131 11.469 25.6 25.6 25.6s25.6-11.469 25.6-25.6v-358.4c0-42.342-34.458-76.8-76.8-76.8zM742.4 652.8c-14.131 0-25.6 11.469-25.6 25.6v204.8c0 14.131-11.469 25.6-25.6 25.6h-358.4c-14.131 0-25.6-11.469-25.6-25.6v-204.8c0-14.131-11.469-25.6-25.6-25.6s-25.6 11.469-25.6 25.6v204.8c0 42.342 34.458 76.8 76.8 76.8h358.4c42.342 0 76.8-34.458 76.8-76.8v-204.8c0-14.131-11.469-25.6-25.6-25.6zM384.051 38.4c-1.382 0-2.816 0.102-4.25 0.358-13.926 2.304-23.347 15.514-21.043 29.44 0.512 3.174 13.312 79.206 35.891 156.57 34.253 117.35 71.526 172.032 117.402 172.032s83.149-54.682 117.402-172.032c22.579-77.363 35.328-153.344 35.891-156.57 2.304-13.926-7.117-27.136-21.043-29.44s-27.136 7.117-29.44 21.043c-0.102 0.768-12.902 76.544-34.611 151.040-12.493 42.752-25.395 76.493-38.298 100.352-14.797 27.238-25.958 34.458-29.798 34.458s-15.053-7.219-29.901-34.611c-12.954-23.91-25.856-57.702-38.349-100.557-21.709-74.496-34.406-149.914-34.509-150.63-2.099-12.544-12.954-21.402-25.242-21.402z" />
<glyph unicode="&#xe909;" glyph-name="hearing" d="M665.6 38.4c-48.282 0-88.422 18.995-116.122 54.989-24.525 31.846-37.478 74.854-37.478 124.211 0 14.131 11.469 25.6 25.6 25.6s25.6-11.469 25.6-25.6c0-61.901 26.88-128 102.4-128 22.323 0 41.216 16.742 53.094 30.822 20.224 23.91 37.632 59.955 50.278 104.243 24.218 84.685 59.034 136.243 89.754 181.76 35.123 51.968 62.874 93.082 62.874 169.626 0 133.478-96.922 230.4-230.4 230.4-127.027 0-230.4-103.373-230.4-230.4 0-14.131-11.469-25.6-25.6-25.6s-25.6 11.469-25.6 25.6c0 155.29 126.31 281.6 281.6 281.6 76.442 0 147.046-27.546 198.81-77.619 53.402-51.61 82.79-124.058 82.79-203.981 0-92.211-34.765-143.718-71.629-198.246-30.003-44.39-61.030-90.317-82.944-167.168-14.848-51.917-35.174-93.389-60.416-123.238-27.085-32-58.982-48.947-92.211-48.947zM412.979 79.923c-2.662 0-5.427 0.41-8.090 1.331-13.414 4.454-20.685 18.944-16.179 32.358 13.875 41.626 20.89 85.248 20.89 129.587 0 120.115-52.48 233.779-143.974 311.808-10.752 9.165-12.032 25.344-2.867 36.096s25.344 12.032 36.096 2.867c102.912-87.757 161.946-215.603 161.946-350.771 0-49.818-7.936-98.867-23.552-145.766-3.584-10.752-13.568-17.51-24.269-17.51zM267.213 128.512c-2.662 0-5.427 0.41-8.090 1.331-13.414 4.454-20.685 18.944-16.179 32.358 8.653 26.010 13.056 53.248 13.056 80.998 0 75.11-32.819 146.125-90.010 194.867-10.752 9.165-12.032 25.344-2.867 36.096s25.344 12.032 36.096 2.867c68.608-58.522 107.981-143.77 107.981-233.83 0-33.229-5.274-65.894-15.718-97.178-3.584-10.752-13.568-17.51-24.269-17.51zM121.446 177.101c-2.662 0-5.427 0.41-8.090 1.331-13.414 4.454-20.685 18.944-16.179 32.358 3.482 10.394 5.222 21.299 5.222 32.41 0 30.054-13.107 58.47-35.994 77.978-10.752 9.165-12.032 25.344-2.867 36.096s25.344 12.032 36.096 2.867c34.304-29.235 53.965-71.885 53.965-116.89 0-16.589-2.662-32.973-7.834-48.589-3.584-10.752-13.568-17.51-24.269-17.51zM691.2 755.2c-98.816 0-179.2-80.384-179.2-179.2 0-42.342 34.458-76.8 76.8-76.8 25.498 0 38.4 18.688 46.899 31.027 9.677 13.978 14.592 20.173 29.901 20.173 47.514 0 51.2-58.778 51.2-76.8 0-42.342-34.458-76.8-76.8-76.8-14.131 0-25.6-11.469-25.6-25.6s11.469-25.6 25.6-25.6c70.554 0 128 57.446 128 128 0 34.406-8.192 64.461-23.757 86.938-18.278 26.47-46.234 41.062-78.643 41.062-42.803 0-61.082-26.47-71.987-42.291-1.946-2.867-4.762-6.912-6.605-8.858-13.312 0.922-23.808 12.032-23.808 25.549 0 70.554 57.446 128 128 128s128-57.446 128-128c0-14.131 11.469-25.6 25.6-25.6s25.6 11.469 25.6 25.6c0 98.816-80.384 179.2-179.2 179.2z" />
<glyph unicode="&#xe90a;" glyph-name="mic" d="M486.4 243.2c-98.816 0-179.2 80.384-179.2 179.2v307.2c0 98.816 80.384 179.2 179.2 179.2s179.2-80.384 179.2-179.2v-307.2c0-98.816-80.384-179.2-179.2-179.2zM486.4 857.6c-70.554 0-128-57.446-128-128v-307.2c0-70.554 57.446-128 128-128s128 57.446 128 128v307.2c0 70.554-57.446 128-128 128zM819.2 422.4c0 14.131-11.469 25.6-25.6 25.6s-25.6-11.469-25.6-25.6c0-155.29-126.31-281.6-281.6-281.6s-281.6 126.31-281.6 281.6c0 14.131-11.469 25.6-25.6 25.6s-25.6-11.469-25.6-25.6c0-174.899 135.629-318.72 307.2-331.827v-103.373h-76.8c-14.131 0-25.6-11.469-25.6-25.6s11.469-25.6 25.6-25.6h204.8c14.131 0 25.6 11.469 25.6 25.6s-11.469 25.6-25.6 25.6h-76.8v103.373c171.571 13.107 307.2 156.928 307.2 331.827z" />
<glyph unicode="&#xe90b;" glyph-name="shield-check" d="M486.4-64c-2.714 0-5.478 0.461-8.090 1.331-94.157 31.386-212.326 135.731-301.056 265.882-80.845 118.579-177.254 315.085-177.254 577.638 0 14.131 11.469 25.6 25.6 25.6 144.077 0 370.586 98.611 446.618 149.299 8.602 5.734 19.814 5.734 28.416 0 76.032-50.688 302.541-149.299 446.618-149.299 14.131 0 25.6-11.469 25.6-25.6 0-262.554-96.41-459.008-177.254-577.638-88.73-130.099-206.899-234.496-301.056-265.882-2.611-0.87-5.376-1.331-8.090-1.331zM51.507 756.019c5.786-237.107 93.798-415.13 168.038-524.032 90.573-132.813 197.427-216.576 266.854-243.251 69.427 26.675 176.282 110.387 266.854 243.251 74.24 108.902 162.253 286.925 168.038 524.032-83.354 5.222-176.23 33.894-242.176 58.368-72.602 26.88-145.869 61.082-192.717 89.651-46.848-28.57-120.115-62.771-192.717-89.651-65.997-24.422-158.822-53.146-242.176-58.368zM435.2 320c-6.554 0-13.107 2.509-18.125 7.475l-102.4 102.4c-9.984 9.984-9.984 26.214 0 36.198s26.214 9.984 36.198 0l84.275-84.275 237.875 237.875c9.984 9.984 26.214 9.984 36.198 0s9.984-26.214 0-36.198l-256-256c-5.018-5.018-11.571-7.475-18.125-7.475z" />
<glyph unicode="&#xe90d;" glyph-name="wifi" d="M537.6 140.8c-42.342 0-76.8 34.458-76.8 76.8s34.458 76.8 76.8 76.8c42.342 0 76.8-34.458 76.8-76.8s-34.458-76.8-76.8-76.8zM537.6 243.2c-14.131 0-25.6-11.469-25.6-25.6s11.469-25.6 25.6-25.6 25.6 11.469 25.6 25.6-11.469 25.6-25.6 25.6zM361.114 296.038c-4.403 0-8.909 1.126-13.005 3.584-12.186 7.168-16.23 22.886-9.011 35.072 20.019 33.894 48.589 62.259 82.534 82.074 35.072 20.429 75.162 31.232 115.917 31.232s80.896-10.803 115.917-31.232c33.997-19.814 62.515-48.23 82.534-82.074 7.219-12.186 3.174-27.853-9.011-35.072s-27.853-3.174-35.072 9.011c-32.154 54.374-91.29 88.166-154.419 88.166s-122.266-33.792-154.419-88.166c-4.762-8.090-13.312-12.595-22.067-12.595zM824.678 406.63c-7.782 0-15.462 3.533-20.531 10.24-63.539 84.838-160.717 133.53-266.547 133.53s-203.008-48.64-266.547-133.53c-8.499-11.315-24.525-13.619-35.84-5.12s-13.619 24.525-5.12 35.84c35.021 46.746 80.947 85.504 132.813 112.077 54.426 27.853 113.203 41.984 174.694 41.984s120.32-14.131 174.694-41.984c51.866-26.522 97.792-65.28 132.813-112.077 8.499-11.315 6.195-27.341-5.12-35.84-4.608-3.43-9.984-5.12-15.309-5.12zM934.042 516.045c-7.424 0-14.746 3.226-19.814 9.37-92.877 113.51-230.144 178.586-376.627 178.586s-283.75-65.075-376.627-178.586c-8.96-10.957-25.088-12.544-36.045-3.584s-12.544 25.088-3.584 36.045c102.656 125.44 254.362 197.376 416.256 197.376s313.6-71.936 416.256-197.376c8.96-10.957 7.322-27.085-3.584-36.045-4.762-3.891-10.496-5.786-16.179-5.786z" />
<glyph unicode="&#xe90e;" glyph-name="finger-tap" d="M870.4 550.4c-21.094 0-40.653-6.4-56.986-17.357-14.029 39.885-52.019 68.557-96.614 68.557-21.094 0-40.653-6.4-56.986-17.357-14.029 39.885-52.019 68.557-96.614 68.557-18.637 0-36.147-5.018-51.2-13.773v167.373c0 56.474-45.926 102.4-102.4 102.4s-102.4-45.926-102.4-102.4v-377.498l-68.915 119.45c-13.363 24.32-35.174 41.626-61.389 48.794-25.549 6.963-52.122 3.277-74.854-10.342-46.438-27.853-64.154-90.829-39.424-140.39 1.536-3.123 34.202-70.042 136.192-273.92 48.026-96 100.71-164.659 156.621-203.981 43.878-30.874 74.189-32.461 79.821-32.461h256c43.418 0 83.558 12.544 119.347 37.376 34.611 23.962 64.461 58.982 88.781 104.090 48.077 89.242 73.472 217.395 73.472 370.534 0 56.474-45.926 102.4-102.4 102.4zM854.272 101.734c-28.109-52.275-79.258-114.534-163.072-114.534h-255.488c-1.997 0.154-23.552 2.56-56.064 26.88-32.41 24.269-82.176 75.366-135.066 181.248-103.782 207.565-135.68 272.947-135.987 273.562-0.051 0.102-0.051 0.154-0.102 0.205-12.851 25.754-3.738 59.494 19.917 73.677 10.65 6.4 23.091 8.090 35.072 4.864 12.749-3.482 23.45-12.083 30.054-24.166 0.102-0.154 0.205-0.358 0.307-0.512l79.923-138.496c16.333-29.85 34.714-42.394 54.63-37.325 19.968 5.069 30.054 25.037 30.054 59.238v399.974c0 28.211 22.989 51.2 51.2 51.2s51.2-22.989 51.2-51.2v-332.8c0-14.131 11.469-25.6 25.6-25.6s25.6 11.469 25.6 25.6v76.8c0 28.211 22.989 51.2 51.2 51.2s51.2-22.989 51.2-51.2v-76.8c0-14.131 11.469-25.6 25.6-25.6s25.6 11.469 25.6 25.6v25.6c0 28.211 22.989 51.2 51.2 51.2s51.2-22.989 51.2-51.2v-76.8c0-14.131 11.469-25.6 25.6-25.6s25.6 11.469 25.6 25.6v25.6c0 28.211 22.989 51.2 51.2 51.2s51.2-22.989 51.2-51.2c0-144.691-23.296-264.448-67.328-346.266zM230.4 857.6c-3.84 0-7.731 0.87-11.418 2.714l-102.4 51.2c-12.646 6.298-17.766 21.709-11.469 34.355s21.709 17.766 34.355 11.469l102.4-51.2c12.646-6.298 17.766-21.709 11.469-34.355-4.506-8.96-13.517-14.182-22.938-14.182zM128 704c-9.37 0-18.432 5.171-22.938 14.182-6.298 12.646-1.178 28.006 11.469 34.355l102.4 51.2c12.646 6.298 28.006 1.178 34.355-11.469s1.178-28.006-11.469-34.355l-102.4-51.2c-3.686-1.843-7.578-2.714-11.418-2.714zM588.8 857.6c-9.37 0-18.432 5.171-22.938 14.182-6.298 12.646-1.178 28.006 11.469 34.355l102.4 51.2c12.646 6.298 28.006 1.178 34.355-11.469s1.178-28.006-11.469-34.355l-102.4-51.2c-3.686-1.843-7.578-2.714-11.418-2.714zM691.2 704c-3.84 0-7.731 0.87-11.418 2.714l-102.4 51.2c-12.646 6.298-17.766 21.709-11.469 34.355s21.709 17.766 34.355 11.469l102.4-51.2c12.646-6.298 17.766-21.709 11.469-34.355-4.506-8.96-13.517-14.182-22.938-14.182z" />
</font></defs></svg>